alu4_tb.vcd
$date
	Sat Sep 06 00:36:21 2025
$end
$version
	Icarus Verilog
$end
$timescale
	1ps
$end
$scope module alu4_tb $end
$var wire 1 ! zero $end
$var wire 1 " sign $end
$var wire 1 # overflow $end
$var wire 1 $ carry_out $end
$var wire 4 % Y [3:0] $end
$var reg 4 & A [3:0] $end
$var reg 4 ' B [3:0] $end
$var reg 1 ( expected_carry $end
$var reg 5 ) expected_diff [4:0] $end
$var reg 4 * expected_logic [3:0] $end
$var reg 1 + expected_ovf $end
$var reg 1 , expected_sign $end
$var reg 5 - expected_sum [4:0] $end
$var reg 1 . expected_zero $end
$var reg 3 / op [2:0] $end
$var integer 32 0 i [31:0] $end
$var integer 32 1 j [31:0] $end
$var integer 32 2 outfile [31:0] $end
$scope module dut $end
$var wire 4 3 A [3:0] $end
$var wire 4 4 B [3:0] $end
$var wire 3 5 op [2:0] $end
$var wire 1 ! zero $end
$var wire 4 6 xor_r [3:0] $end
$var wire 4 7 sub_res [3:0] $end
$var wire 1 8 sub_ovf $end
$var wire 1 9 sub_borrow $end
$var wire 1 " sign $end
$var wire 1 # overflow $end
$var wire 4 : or_r [3:0] $end
$var wire 1 $ carry_out $end
$var wire 1 ; arith_overflow $end
$var wire 1 < arith_carry_borrow $end
$var wire 4 = and_r [3:0] $end
$var wire 4 > add_res [3:0] $end
$var wire 1 ? add_ovf $end
$var wire 1 @ add_cout $end
$var wire 4 A Y [3:0] $end
$scope module u_add $end
$var wire 4 B A [3:0] $end
$var wire 4 C B [3:0] $end
$var wire 1 ? OVF $end
$var wire 5 D full_sum [4:0] $end
$var wire 4 E SUM [3:0] $end
$var wire 1 @ COUT $end
$upscope $end
$scope module u_flags $end
$var wire 1 $ carry_out $end
$var wire 3 F op [2:0] $end
$var wire 1 # overflow $end
$var wire 1 ! zero $end
$var wire 1 " sign $end
$var wire 1 ; arith_overflow $end
$var wire 1 < arith_carry_borrow $end
$var wire 4 G Y [3:0] $end
$upscope $end
$scope module u_logic $end
$var wire 4 H A [3:0] $end
$var wire 4 I AND_R [3:0] $end
$var wire 4 J B [3:0] $end
$var wire 4 K OR_R [3:0] $end
$var wire 4 L XOR_R [3:0] $end
$upscope $end
$scope module u_mux $end
$var wire 1 @ ADD_COUT $end
$var wire 1 ? ADD_OVF $end
$var wire 4 M ADD_RES [3:0] $end
$var wire 4 N AND_R [3:0] $end
$var wire 4 O OR_R [3:0] $end
$var wire 4 P XOR_R [3:0] $end
$var wire 3 Q op [2:0] $end
$var wire 4 R SUB_RES [3:0] $end
$var wire 1 8 SUB_OVF $end
$var wire 1 9 SUB_BORROW $end
$var reg 4 S Y [3:0] $end
$var reg 1 < arith_carry_borrow $end
$var reg 1 ; arith_overflow $end
$upscope $end
$scope module u_sub $end
$var wire 4 T A [3:0] $end
$var wire 4 U B [3:0] $end
$var wire 1 9 BORROW $end
$var wire 1 8 OVF $end
$var wire 5 V full_diff [4:0] $end
$var wire 4 W DIFF [3:0] $end
$upscope $end
$upscope $end
$upscope $end
$enddefinitions $end
$comment Show the parameter values. $end
$dumpall
$end
#0
$dumpvars
b0 W
b0 V
b0 U
b0 T
b0 S
b0 R
b0 Q
b0 P
b0 O
b0 N
b0 M
b0 L
b0 K
b0 J
b0 I
b0 H
b0 G
b0 F
b0 E
b0 D
b0 C
b0 B
b0 A
0@
0?
b0 >
b0 =
0<
0;
b0 :
19
08
b0 7
b0 6
b0 5
b0 4
b0 3
b10000000000000000000000000000011 2
b0 1
b0 0
b0 /
x.
bx -
x,
x+
bx *
bx )
x(
b0 '
b0 &
b0 %
0$
0#
0"
1!
$end
#5000
0!
b1 %
b1 A
b1 G
b1 S
09
b1 >
b1 E
b1 M
b1 :
b1 K
b1 O
b1 6
b1 L
b1 P
b1111 7
b1111 R
b1111 W
b1 D
b11111 V
b1 '
b1 4
b1 C
b1 J
b1 U
b1 1
0,
1.
0+
0(
b0 *
b0 -
#10000
b10 %
b10 A
b10 G
b10 S
b10 >
b10 E
b10 M
b10 :
b10 K
b10 O
b10 6
b10 L
b10 P
b1110 7
b1110 R
b1110 W
b10 D
b11110 V
b10 '
b10 4
b10 C
b10 J
b10 U
b10 1
0.
b1 *
b1 -
#15000
b11 %
b11 A
b11 G
b11 S
b11 >
b11 E
b11 M
b11 :
b11 K
b11 O
b11 6
b11 L
b11 P
b1101 7
b1101 R
b1101 W
b11 D
b11101 V
b11 '
b11 4
b11 C
b11 J
b11 U
b11 1
b10 *
b10 -
#20000
b100 %
b100 A
b100 G
b100 S
b100 >
b100 E
b100 M
b100 :
b100 K
b100 O
b100 6
b100 L
b100 P
b1100 7
b1100 R
b1100 W
b100 D
b11100 V
b100 '
b100 4
b100 C
b100 J
b100 U
b100 1
b11 *
b11 -
#25000
b101 %
b101 A
b101 G
b101 S
b101 >
b101 E
b101 M
b101 :
b101 K
b101 O
b101 6
b101 L
b101 P
b1011 7
b1011 R
b1011 W
b101 D
b11011 V
b101 '
b101 4
b101 C
b101 J
b101 U
b101 1
b100 *
b100 -
#30000
b110 %
b110 A
b110 G
b110 S
b110 >
b110 E
b110 M
b110 :
b110 K
b110 O
b110 6
b110 L
b110 P
b1010 7
b1010 R
b1010 W
b110 D
b11010 V
b110 '
b110 4
b110 C
b110 J
b110 U
b110 1
b101 *
b101 -
#35000
b111 %
b111 A
b111 G
b111 S
b111 >
b111 E
b111 M
b111 :
b111 K
b111 O
b111 6
b111 L
b111 P
b1001 7
b1001 R
b1001 W
b111 D
b11001 V
b111 '
b111 4
b111 C
b111 J
b111 U
b111 1
b110 *
b110 -
#40000
1"
18
b1000 %
b1000 A
b1000 G
b1000 S
b1000 >
b1000 E
b1000 M
b1000 :
b1000 K
b1000 O
b1000 6
b1000 L
b1000 P
b1000 7
b1000 R
b1000 W
b1000 D
b11000 V
b1000 '
b1000 4
b1000 C
b1000 J
b1000 U
b1000 1
b111 *
b111 -
#45000
08
b1001 %
b1001 A
b1001 G
b1001 S
b1001 >
b1001 E
b1001 M
b1001 :
b1001 K
b1001 O
b1001 6
b1001 L
b1001 P
b111 7
b111 R
b111 W
b1001 D
b10111 V
b1001 '
b1001 4
b1001 C
b1001 J
b1001 U
b1001 1
1,
b1000 *
b1000 -
#50000
b1010 %
b1010 A
b1010 G
b1010 S
b1010 >
b1010 E
b1010 M
b1010 :
b1010 K
b1010 O
b1010 6
b1010 L
b1010 P
b110 7
b110 R
b110 W
b1010 D
b10110 V
b1010 '
b1010 4
b1010 C
b1010 J
b1010 U
b1010 1
b1001 *
b1001 -
#55000
b1011 %
b1011 A
b1011 G
b1011 S
b1011 >
b1011 E
b1011 M
b1011 :
b1011 K
b1011 O
b1011 6
b1011 L
b1011 P
b101 7
b101 R
b101 W
b1011 D
b10101 V
b1011 '
b1011 4
b1011 C
b1011 J
b1011 U
b1011 1
b1010 *
b1010 -
#60000
b1100 %
b1100 A
b1100 G
b1100 S
b1100 >
b1100 E
b1100 M
b1100 :
b1100 K
b1100 O
b1100 6
b1100 L
b1100 P
b100 7
b100 R
b100 W
b1100 D
b10100 V
b1100 '
b1100 4
b1100 C
b1100 J
b1100 U
b1100 1
b1011 *
b1011 -
#65000
b1101 %
b1101 A
b1101 G
b1101 S
b1101 >
b1101 E
b1101 M
b1101 :
b1101 K
b1101 O
b1101 6
b1101 L
b1101 P
b11 7
b11 R
b11 W
b1101 D
b10011 V
b1101 '
b1101 4
b1101 C
b1101 J
b1101 U
b1101 1
b1100 *
b1100 -
#70000
b1110 %
b1110 A
b1110 G
b1110 S
b1110 >
b1110 E
b1110 M
b1110 :
b1110 K
b1110 O
b1110 6
b1110 L
b1110 P
b10 7
b10 R
b10 W
b1110 D
b10010 V
b1110 '
b1110 4
b1110 C
b1110 J
b1110 U
b1110 1
b1101 *
b1101 -
#75000
b1111 %
b1111 A
b1111 G
b1111 S
b1111 >
b1111 E
b1111 M
b1111 :
b1111 K
b1111 O
b1111 6
b1111 L
b1111 P
b1 7
b1 R
b1 W
b1111 D
b10001 V
b1111 '
b1111 4
b1111 C
b1111 J
b1111 U
b1111 1
b1110 *
b1110 -
#80000
0"
19
b1 %
b1 A
b1 G
b1 S
b1 >
b1 E
b1 M
b1 :
b1 K
b1 O
b1 6
b1 L
b1 P
b0 '
b0 4
b0 C
b0 J
b0 U
b1 D
b1 V
b1 &
b1 3
b1 B
b1 H
b1 T
b1 0
b0 1
b1111 *
b1111 -
#85000
b10 %
b10 A
b10 G
b10 S
b10 >
b10 E
b10 M
b1 =
b1 I
b1 N
b0 6
b0 L
b0 P
b0 7
b0 R
b0 W
b10 D
b0 V
b1 '
b1 4
b1 C
b1 J
b1 U
b1 1
0,
b1 *
b1 -
#90000
b11 %
b11 A
b11 G
b11 S
09
b11 >
b11 E
b11 M
b0 =
b0 I
b0 N
b11 :
b11 K
b11 O
b11 6
b11 L
b11 P
b1111 7
b1111 R
b1111 W
b11 D
b11111 V
b10 '
b10 4
b10 C
b10 J
b10 U
b10 1
b10 *
b10 -
#95000
b100 %
b100 A
b100 G
b100 S
b100 >
b100 E
b100 M
b1 =
b1 I
b1 N
b10 6
b10 L
b10 P
b1110 7
b1110 R
b1110 W
b100 D
b11110 V
b11 '
b11 4
b11 C
b11 J
b11 U
b11 1
b11 *
b11 -
#100000
b101 %
b101 A
b101 G
b101 S
b101 >
b101 E
b101 M
b0 =
b0 I
b0 N
b101 :
b101 K
b101 O
b101 6
b101 L
b101 P
b1101 7
b1101 R
b1101 W
b101 D
b11101 V
b100 '
b100 4
b100 C
b100 J
b100 U
b100 1
b100 *
b100 -
#105000
b110 %
b110 A
b110 G
b110 S
b110 >
b110 E
b110 M
b1 =
b1 I
b1 N
b100 6
b100 L
b100 P
b1100 7
b1100 R
b1100 W
b110 D
b11100 V
b101 '
b101 4
b101 C
b101 J
b101 U
b101 1
b101 *
b101 -
#110000
b111 %
b111 A
b111 G
b111 S
b111 >
b111 E
b111 M
b0 =
b0 I
b0 N
b111 :
b111 K
b111 O
b111 6
b111 L
b111 P
b1011 7
b1011 R
b1011 W
b111 D
b11011 V
b110 '
b110 4
b110 C
b110 J
b110 U
b110 1
b110 *
b110 -
#115000
1#
1;
1?
1"
b1000 %
b1000 A
b1000 G
b1000 S
b1000 >
b1000 E
b1000 M
b1 =
b1 I
b1 N
b110 6
b110 L
b110 P
b1010 7
b1010 R
b1010 W
b1000 D
b11010 V
b111 '
b111 4
b111 C
b111 J
b111 U
b111 1
b111 *
b111 -
#120000
0#
0;
0?
18
b1001 %
b1001 A
b1001 G
b1001 S
b1001 >
b1001 E
b1001 M
b0 =
b0 I
b0 N
b1001 :
b1001 K
b1001 O
b1001 6
b1001 L
b1001 P
b1001 7
b1001 R
b1001 W
b1001 D
b11001 V
b1000 '
b1000 4
b1000 C
b1000 J
b1000 U
b1000 1
1,
1+
b1000 *
b1000 -
#125000
b1010 %
b1010 A
b1010 G
b1010 S
b1010 >
b1010 E
b1010 M
b1 =
b1 I
b1 N
b1000 6
b1000 L
b1000 P
b1000 7
b1000 R
b1000 W
b1010 D
b11000 V
b1001 '
b1001 4
b1001 C
b1001 J
b1001 U
b1001 1
0+
b1001 *
b1001 -
#130000
08
b1011 %
b1011 A
b1011 G
b1011 S
b1011 >
b1011 E
b1011 M
b0 =
b0 I
b0 N
b1011 :
b1011 K
b1011 O
b1011 6
b1011 L
b1011 P
b111 7
b111 R
b111 W
b1011 D
b10111 V
b1010 '
b1010 4
b1010 C
b1010 J
b1010 U
b1010 1
b1010 *
b1010 -
#135000
b1100 %
b1100 A
b1100 G
b1100 S
b1100 >
b1100 E
b1100 M
b1 =
b1 I
b1 N
b1010 6
b1010 L
b1010 P
b110 7
b110 R
b110 W
b1100 D
b10110 V
b1011 '
b1011 4
b1011 C
b1011 J
b1011 U
b1011 1
b1011 *
b1011 -
#140000
b1101 %
b1101 A
b1101 G
b1101 S
b1101 >
b1101 E
b1101 M
b0 =
b0 I
b0 N
b1101 :
b1101 K
b1101 O
b1101 6
b1101 L
b1101 P
b101 7
b101 R
b101 W
b1101 D
b10101 V
b1100 '
b1100 4
b1100 C
b1100 J
b1100 U
b1100 1
b1100 *
b1100 -
#145000
b1110 %
b1110 A
b1110 G
b1110 S
b1110 >
b1110 E
b1110 M
b1 =
b1 I
b1 N
b1100 6
b1100 L
b1100 P
b100 7
b100 R
b100 W
b1110 D
b10100 V
b1101 '
b1101 4
b1101 C
b1101 J
b1101 U
b1101 1
b1101 *
b1101 -
#150000
b1111 %
b1111 A
b1111 G
b1111 S
b1111 >
b1111 E
b1111 M
b0 =
b0 I
b0 N
b1111 :
b1111 K
b1111 O
b1111 6
b1111 L
b1111 P
b11 7
b11 R
b11 W
b1111 D
b10011 V
b1110 '
b1110 4
b1110 C
b1110 J
b1110 U
b1110 1
b1110 *
b1110 -
#155000
0"
1$
1<
1!
b0 %
b0 A
b0 G
b0 S
b0 >
b0 E
b0 M
1@
b1 =
b1 I
b1 N
b1110 6
b1110 L
b1110 P
b10 7
b10 R
b10 W
b10000 D
b10010 V
b1111 '
b1111 4
b1111 C
b1111 J
b1111 U
b1111 1
b1111 *
b1111 -
#160000
19
0$
0<
0!
b10 %
b10 A
b10 G
b10 S
0@
b10 >
b10 E
b10 M
b0 =
b0 I
b0 N
b10 :
b10 K
b10 O
b10 6
b10 L
b10 P
b0 '
b0 4
b0 C
b0 J
b0 U
b10 D
b10 V
b10 &
b10 3
b10 B
b10 H
b10 T
b10 0
b0 1
0,
1.
1(
b0 *
b10000 -
#165000
b11 %
b11 A
b11 G
b11 S
b11 >
b11 E
b11 M
b11 :
b11 K
b11 O
b11 6
b11 L
b11 P
b1 7
b1 R
b1 W
b11 D
b1 V
b1 '
b1 4
b1 C
b1 J
b1 U
b1 1
0.
0(
b10 *
b10 -
#170000
b100 %
b100 A
b100 G
b100 S
b100 >
b100 E
b100 M
b10 =
b10 I
b10 N
b10 :
b10 K
b10 O
b0 6
b0 L
b0 P
b0 7
b0 R
b0 W
b100 D
b0 V
b10 '
b10 4
b10 C
b10 J
b10 U
b10 1
b11 *
b11 -
#175000
b101 %
b101 A
b101 G
b101 S
09
b101 >
b101 E
b101 M
b11 :
b11 K
b11 O
b1 6
b1 L
b1 P
b1111 7
b1111 R
b1111 W
b101 D
b11111 V
b11 '
b11 4
b11 C
b11 J
b11 U
b11 1
b100 *
b100 -
#180000
b110 %
b110 A
b110 G
b110 S
b110 >
b110 E
b110 M
b0 =
b0 I
b0 N
b110 :
b110 K
b110 O
b110 6
b110 L
b110 P
b1110 7
b1110 R
b1110 W
b110 D
b11110 V
b100 '
b100 4
b100 C
b100 J
b100 U
b100 1
b101 *
b101 -
#185000
b111 %
b111 A
b111 G
b111 S
b111 >
b111 E
b111 M
b111 :
b111 K
b111 O
b111 6
b111 L
b111 P
b1101 7
b1101 R
b1101 W
b111 D
b11101 V
b101 '
b101 4
b101 C
b101 J
b101 U
b101 1
b110 *
b110 -
#190000
1#
1;
1?
1"
b1000 %
b1000 A
b1000 G
b1000 S
b1000 >
b1000 E
b1000 M
b10 =
b10 I
b10 N
b110 :
b110 K
b110 O
b100 6
b100 L
b100 P
b1100 7
b1100 R
b1100 W
b1000 D
b11100 V
b110 '
b110 4
b110 C
b110 J
b110 U
b110 1
b111 *
b111 -
#195000
b1001 %
b1001 A
b1001 G
b1001 S
b1001 >
b1001 E
b1001 M
b111 :
b111 K
b111 O
b101 6
b101 L
b101 P
b1011 7
b1011 R
b1011 W
b1001 D
b11011 V
b111 '
b111 4
b111 C
b111 J
b111 U
b111 1
1,
1+
b1000 *
b1000 -
#200000
0#
0;
0?
18
b1010 %
b1010 A
b1010 G
b1010 S
b1010 >
b1010 E
b1010 M
b0 =
b0 I
b0 N
b1010 :
b1010 K
b1010 O
b1010 6
b1010 L
b1010 P
b1010 7
b1010 R
b1010 W
b1010 D
b11010 V
b1000 '
b1000 4
b1000 C
b1000 J
b1000 U
b1000 1
b1001 *
b1001 -
#205000
b1011 %
b1011 A
b1011 G
b1011 S
b1011 >
b1011 E
b1011 M
b1011 :
b1011 K
b1011 O
b1011 6
b1011 L
b1011 P
b1001 7
b1001 R
b1001 W
b1011 D
b11001 V
b1001 '
b1001 4
b1001 C
b1001 J
b1001 U
b1001 1
0+
b1010 *
b1010 -
#210000
b1100 %
b1100 A
b1100 G
b1100 S
b1100 >
b1100 E
b1100 M
b10 =
b10 I
b10 N
b1010 :
b1010 K
b1010 O
b1000 6
b1000 L
b1000 P
b1000 7
b1000 R
b1000 W
b1100 D
b11000 V
b1010 '
b1010 4
b1010 C
b1010 J
b1010 U
b1010 1
b1011 *
b1011 -
#215000
08
b1101 %
b1101 A
b1101 G
b1101 S
b1101 >
b1101 E
b1101 M
b1011 :
b1011 K
b1011 O
b1001 6
b1001 L
b1001 P
b111 7
b111 R
b111 W
b1101 D
b10111 V
b1011 '
b1011 4
b1011 C
b1011 J
b1011 U
b1011 1
b1100 *
b1100 -
#220000
b1110 %
b1110 A
b1110 G
b1110 S
b1110 >
b1110 E
b1110 M
b0 =
b0 I
b0 N
b1110 :
b1110 K
b1110 O
b1110 6
b1110 L
b1110 P
b110 7
b110 R
b110 W
b1110 D
b10110 V
b1100 '
b1100 4
b1100 C
b1100 J
b1100 U
b1100 1
b1101 *
b1101 -
#225000
b1111 %
b1111 A
b1111 G
b1111 S
b1111 >
b1111 E
b1111 M
b1111 :
b1111 K
b1111 O
b1111 6
b1111 L
b1111 P
b101 7
b101 R
b101 W
b1111 D
b10101 V
b1101 '
b1101 4
b1101 C
b1101 J
b1101 U
b1101 1
b1110 *
b1110 -
#230000
0"
1$
1<
1!
b0 %
b0 A
b0 G
b0 S
b0 >
b0 E
b0 M
1@
b10 =
b10 I
b10 N
b1110 :
b1110 K
b1110 O
b1100 6
b1100 L
b1100 P
b100 7
b100 R
b100 W
b10000 D
b10100 V
b1110 '
b1110 4
b1110 C
b1110 J
b1110 U
b1110 1
b1111 *
b1111 -
#235000
0!
b1 %
b1 A
b1 G
b1 S
b1 >
b1 E
b1 M
b1111 :
b1111 K
b1111 O
b1101 6
b1101 L
b1101 P
b11 7
b11 R
b11 W
b10001 D
b10011 V
b1111 '
b1111 4
b1111 C
b1111 J
b1111 U
b1111 1
0,
1.
1(
b0 *
b10000 -
#240000
19
0$
0<
b11 %
b11 A
b11 G
b11 S
0@
b11 >
b11 E
b11 M
b0 =
b0 I
b0 N
b11 :
b11 K
b11 O
b11 6
b11 L
b11 P
b0 '
b0 4
b0 C
b0 J
b0 U
b11 D
b11 V
b11 &
b11 3
b11 B
b11 H
b11 T
b11 0
b0 1
0.
b1 *
b10001 -
#245000
b100 %
b100 A
b100 G
b100 S
b100 >
b100 E
b100 M
b1 =
b1 I
b1 N
b10 6
b10 L
b10 P
b10 7
b10 R
b10 W
b100 D
b10 V
b1 '
b1 4
b1 C
b1 J
b1 U
b1 1
0(
b11 *
b11 -
#250000
b101 %
b101 A
b101 G
b101 S
b101 >
b101 E
b101 M
b10 =
b10 I
b10 N
b1 6
b1 L
b1 P
b1 7
b1 R
b1 W
b101 D
b1 V
b10 '
b10 4
b10 C
b10 J
b10 U
b10 1
b100 *
b100 -
#255000
b110 %
b110 A
b110 G
b110 S
b110 >
b110 E
b110 M
b11 =
b11 I
b11 N
b0 6
b0 L
b0 P
b0 7
b0 R
b0 W
b110 D
b0 V
b11 '
b11 4
b11 C
b11 J
b11 U
b11 1
b101 *
b101 -
#260000
b111 %
b111 A
b111 G
b111 S
09
b111 >
b111 E
b111 M
b0 =
b0 I
b0 N
b111 :
b111 K
b111 O
b111 6
b111 L
b111 P
b1111 7
b1111 R
b1111 W
b111 D
b11111 V
b100 '
b100 4
b100 C
b100 J
b100 U
b100 1
b110 *
b110 -
#265000
1#
1;
1?
1"
b1000 %
b1000 A
b1000 G
b1000 S
b1000 >
b1000 E
b1000 M
b1 =
b1 I
b1 N
b110 6
b110 L
b110 P
b1110 7
b1110 R
b1110 W
b1000 D
b11110 V
b101 '
b101 4
b101 C
b101 J
b101 U
b101 1
b111 *
b111 -
#270000
b1001 %
b1001 A
b1001 G
b1001 S
b1001 >
b1001 E
b1001 M
b10 =
b10 I
b10 N
b101 6
b101 L
b101 P
b1101 7
b1101 R
b1101 W
b1001 D
b11101 V
b110 '
b110 4
b110 C
b110 J
b110 U
b110 1
1,
1+
b1000 *
b1000 -
#275000
b1010 %
b1010 A
b1010 G
b1010 S
b1010 >
b1010 E
b1010 M
b11 =
b11 I
b11 N
b100 6
b100 L
b100 P
b1100 7
b1100 R
b1100 W
b1010 D
b11100 V
b111 '
b111 4
b111 C
b111 J
b111 U
b111 1
b1001 *
b1001 -
#280000
0#
0;
0?
18
b1011 %
b1011 A
b1011 G
b1011 S
b1011 >
b1011 E
b1011 M
b0 =
b0 I
b0 N
b1011 :
b1011 K
b1011 O
b1011 6
b1011 L
b1011 P
b1011 7
b1011 R
b1011 W
b1011 D
b11011 V
b1000 '
b1000 4
b1000 C
b1000 J
b1000 U
b1000 1
b1010 *
b1010 -
#285000
b1100 %
b1100 A
b1100 G
b1100 S
b1100 >
b1100 E
b1100 M
b1 =
b1 I
b1 N
b1010 6
b1010 L
b1010 P
b1010 7
b1010 R
b1010 W
b1100 D
b11010 V
b1001 '
b1001 4
b1001 C
b1001 J
b1001 U
b1001 1
0+
b1011 *
b1011 -
#290000
b1101 %
b1101 A
b1101 G
b1101 S
b1101 >
b1101 E
b1101 M
b10 =
b10 I
b10 N
b1001 6
b1001 L
b1001 P
b1001 7
b1001 R
b1001 W
b1101 D
b11001 V
b1010 '
b1010 4
b1010 C
b1010 J
b1010 U
b1010 1
b1100 *
b1100 -
#295000
b1110 %
b1110 A
b1110 G
b1110 S
b1110 >
b1110 E
b1110 M
b11 =
b11 I
b11 N
b1000 6
b1000 L
b1000 P
b1000 7
b1000 R
b1000 W
b1110 D
b11000 V
b1011 '
b1011 4
b1011 C
b1011 J
b1011 U
b1011 1
b1101 *
b1101 -
#300000
08
b1111 %
b1111 A
b1111 G
b1111 S
b1111 >
b1111 E
b1111 M
b0 =
b0 I
b0 N
b1111 :
b1111 K
b1111 O
b1111 6
b1111 L
b1111 P
b111 7
b111 R
b111 W
b1111 D
b10111 V
b1100 '
b1100 4
b1100 C
b1100 J
b1100 U
b1100 1
b1110 *
b1110 -
#305000
0"
1$
1<
1!
b0 %
b0 A
b0 G
b0 S
b0 >
b0 E
b0 M
1@
b1 =
b1 I
b1 N
b1110 6
b1110 L
b1110 P
b110 7
b110 R
b110 W
b10000 D
b10110 V
b1101 '
b1101 4
b1101 C
b1101 J
b1101 U
b1101 1
b1111 *
b1111 -
#310000
0!
b1 %
b1 A
b1 G
b1 S
b1 >
b1 E
b1 M
b10 =
b10 I
b10 N
b1101 6
b1101 L
b1101 P
b101 7
b101 R
b101 W
b10001 D
b10101 V
b1110 '
b1110 4
b1110 C
b1110 J
b1110 U
b1110 1
0,
1.
1(
b0 *
b10000 -
#315000
b10 %
b10 A
b10 G
b10 S
b10 >
b10 E
b10 M
b11 =
b11 I
b11 N
b1100 6
b1100 L
b1100 P
b100 7
b100 R
b100 W
b10010 D
b10100 V
b1111 '
b1111 4
b1111 C
b1111 J
b1111 U
b1111 1
0.
b1 *
b10001 -
#320000
19
0$
0<
b100 %
b100 A
b100 G
b100 S
0@
b100 >
b100 E
b100 M
b0 =
b0 I
b0 N
b100 :
b100 K
b100 O
b100 6
b100 L
b100 P
b0 '
b0 4
b0 C
b0 J
b0 U
b100 D
b100 V
b100 &
b100 3
b100 B
b100 H
b100 T
b100 0
b0 1
b10 *
b10010 -
#325000
b101 %
b101 A
b101 G
b101 S
b101 >
b101 E
b101 M
b101 :
b101 K
b101 O
b101 6
b101 L
b101 P
b11 7
b11 R
b11 W
b101 D
b11 V
b1 '
b1 4
b1 C
b1 J
b1 U
b1 1
0(
b100 *
b100 -
#330000
b110 %
b110 A
b110 G
b110 S
b110 >
b110 E
b110 M
b110 :
b110 K
b110 O
b110 6
b110 L
b110 P
b10 7
b10 R
b10 W
b110 D
b10 V
b10 '
b10 4
b10 C
b10 J
b10 U
b10 1
b101 *
b101 -
#335000
b111 %
b111 A
b111 G
b111 S
b111 >
b111 E
b111 M
b111 :
b111 K
b111 O
b111 6
b111 L
b111 P
b1 7
b1 R
b1 W
b111 D
b1 V
b11 '
b11 4
b11 C
b11 J
b11 U
b11 1
b110 *
b110 -
#340000
1#
1;
1?
1"
b1000 %
b1000 A
b1000 G
b1000 S
b1000 >
b1000 E
b1000 M
b100 =
b100 I
b100 N
b100 :
b100 K
b100 O
b0 6
b0 L
b0 P
b0 7
b0 R
b0 W
b1000 D
b0 V
b100 '
b100 4
b100 C
b100 J
b100 U
b100 1
b111 *
b111 -
#345000
b1001 %
b1001 A
b1001 G
b1001 S
09
b1001 >
b1001 E
b1001 M
b101 :
b101 K
b101 O
b1 6
b1 L
b1 P
b1111 7
b1111 R
b1111 W
b1001 D
b11111 V
b101 '
b101 4
b101 C
b101 J
b101 U
b101 1
1,
1+
b1000 *
b1000 -
#350000
b1010 %
b1010 A
b1010 G
b1010 S
b1010 >
b1010 E
b1010 M
b110 :
b110 K
b110 O
b10 6
b10 L
b10 P
b1110 7
b1110 R
b1110 W
b1010 D
b11110 V
b110 '
b110 4
b110 C
b110 J
b110 U
b110 1
b1001 *
b1001 -
#355000
b1011 %
b1011 A
b1011 G
b1011 S
b1011 >
b1011 E
b1011 M
b111 :
b111 K
b111 O
b11 6
b11 L
b11 P
b1101 7
b1101 R
b1101 W
b1011 D
b11101 V
b111 '
b111 4
b111 C
b111 J
b111 U
b111 1
b1010 *
b1010 -
#360000
0#
0;
0?
18
b1100 %
b1100 A
b1100 G
b1100 S
b1100 >
b1100 E
b1100 M
b0 =
b0 I
b0 N
b1100 :
b1100 K
b1100 O
b1100 6
b1100 L
b1100 P
b1100 7
b1100 R
b1100 W
b1100 D
b11100 V
b1000 '
b1000 4
b1000 C
b1000 J
b1000 U
b1000 1
b1011 *
b1011 -
#365000
b1101 %
b1101 A
b1101 G
b1101 S
b1101 >
b1101 E
b1101 M
b1101 :
b1101 K
b1101 O
b1101 6
b1101 L
b1101 P
b1011 7
b1011 R
b1011 W
b1101 D
b11011 V
b1001 '
b1001 4
b1001 C
b1001 J
b1001 U
b1001 1
0+
b1100 *
b1100 -
#370000
b1110 %
b1110 A
b1110 G
b1110 S
b1110 >
b1110 E
b1110 M
b1110 :
b1110 K
b1110 O
b1110 6
b1110 L
b1110 P
b1010 7
b1010 R
b1010 W
b1110 D
b11010 V
b1010 '
b1010 4
b1010 C
b1010 J
b1010 U
b1010 1
b1101 *
b1101 -
#375000
b1111 %
b1111 A
b1111 G
b1111 S
b1111 >
b1111 E
b1111 M
b1111 :
b1111 K
b1111 O
b1111 6
b1111 L
b1111 P
b1001 7
b1001 R
b1001 W
b1111 D
b11001 V
b1011 '
b1011 4
b1011 C
b1011 J
b1011 U
b1011 1
b1110 *
b1110 -
#380000
0"
1$
1<
1!
b0 %
b0 A
b0 G
b0 S
b0 >
b0 E
b0 M
1@
b100 =
b100 I
b100 N
b1100 :
b1100 K
b1100 O
b1000 6
b1000 L
b1000 P
b1000 7
b1000 R
b1000 W
b10000 D
b11000 V
b1100 '
b1100 4
b1100 C
b1100 J
b1100 U
b1100 1
b1111 *
b1111 -
#385000
08
0!
b1 %
b1 A
b1 G
b1 S
b1 >
b1 E
b1 M
b1101 :
b1101 K
b1101 O
b1001 6
b1001 L
b1001 P
b111 7
b111 R
b111 W
b10001 D
b10111 V
b1101 '
b1101 4
b1101 C
b1101 J
b1101 U
b1101 1
0,
1.
1(
b0 *
b10000 -
#390000
b10 %
b10 A
b10 G
b10 S
b10 >
b10 E
b10 M
b1110 :
b1110 K
b1110 O
b1010 6
b1010 L
b1010 P
b110 7
b110 R
b110 W
b10010 D
b10110 V
b1110 '
b1110 4
b1110 C
b1110 J
b1110 U
b1110 1
0.
b1 *
b10001 -
#395000
b11 %
b11 A
b11 G
b11 S
b11 >
b11 E
b11 M
b1111 :
b1111 K
b1111 O
b1011 6
b1011 L
b1011 P
b101 7
b101 R
b101 W
b10011 D
b10101 V
b1111 '
b1111 4
b1111 C
b1111 J
b1111 U
b1111 1
b10 *
b10010 -
#400000
19
0$
0<
b101 %
b101 A
b101 G
b101 S
0@
b101 >
b101 E
b101 M
b0 =
b0 I
b0 N
b101 :
b101 K
b101 O
b101 6
b101 L
b101 P
b0 '
b0 4
b0 C
b0 J
b0 U
b101 D
b101 V
b101 &
b101 3
b101 B
b101 H
b101 T
b101 0
b0 1
b11 *
b10011 -
#405000
b110 %
b110 A
b110 G
b110 S
b110 >
b110 E
b110 M
b1 =
b1 I
b1 N
b100 6
b100 L
b100 P
b100 7
b100 R
b100 W
b110 D
b100 V
b1 '
b1 4
b1 C
b1 J
b1 U
b1 1
0(
b101 *
b101 -
#410000
b111 %
b111 A
b111 G
b111 S
b111 >
b111 E
b111 M
b0 =
b0 I
b0 N
b111 :
b111 K
b111 O
b111 6
b111 L
b111 P
b11 7
b11 R
b11 W
b111 D
b11 V
b10 '
b10 4
b10 C
b10 J
b10 U
b10 1
b110 *
b110 -
#415000
1#
1;
1?
1"
b1000 %
b1000 A
b1000 G
b1000 S
b1000 >
b1000 E
b1000 M
b1 =
b1 I
b1 N
b110 6
b110 L
b110 P
b10 7
b10 R
b10 W
b1000 D
b10 V
b11 '
b11 4
b11 C
b11 J
b11 U
b11 1
b111 *
b111 -
#420000
b1001 %
b1001 A
b1001 G
b1001 S
b1001 >
b1001 E
b1001 M
b100 =
b100 I
b100 N
b101 :
b101 K
b101 O
b1 6
b1 L
b1 P
b1 7
b1 R
b1 W
b1001 D
b1 V
b100 '
b100 4
b100 C
b100 J
b100 U
b100 1
1,
1+
b1000 *
b1000 -
